-------------------------------------------------------------------------------
Test set: com.epam.newsmanagement.dao.AuthorDaoImplTest
-------------------------------------------------------------------------------
Tests run: 5, Failures: 0, Errors: 0, Skipped: 0, Time elapsed: 3.463 sec
