-------------------------------------------------------------------------------
Test set: com.epam.newsmanagement.service.implementation.CommentServiceImplTest
-------------------------------------------------------------------------------
Tests run: 5, Failures: 0, Errors: 0, Skipped: 0, Time elapsed: 0 sec
