-------------------------------------------------------------------------------
Test set: com.epam.newsmanagement.service.AuthorServiceImplTest
-------------------------------------------------------------------------------
Tests run: 5, Failures: 0, Errors: 0, Skipped: 0, Time elapsed: 0.196 sec
